%YAML 1.1
%TAG !u! tag:unity3d.com,2011:
--- !u!114 &-6680266611408298495
MonoBehaviour:
  m_ObjectHideFlags: 11
  m_CorrespondingSourceObject: {fileID: 0}
  m_PrefabInstance: {fileID: 0}
  m_PrefabAsset: {fileID: 0}
  m_GameObject: {fileID: 0}
  m_Enabled: 1
  m_EditorHideFlags: 0
  m_Script: {fileID: 11500000, guid: d0353a89b1f911e48b9e16bdc9f2e058, type: 3}
  m_Name: 
  m_EditorClassIdentifier: 
  version: 7
--- !u!21 &2100000
Material:
  serializedVersion: 8
  m_ObjectHideFlags: 0
  m_CorrespondingSourceObject: {fileID: 0}
  m_PrefabInstance: {fileID: 0}
  m_PrefabAsset: {fileID: 0}
  m_Name: mat_terrain_near_01
  m_Shader: {fileID: -6465566751694194690, guid: d49ce931685254145b8eae9c754d22db,
    type: 3}
  m_Parent: {fileID: 0}
  m_ModifiedSerializedProperties: 0
  m_ValidKeywords:
  - _ALPHATEST_ON
  - _DISABLE_DECALS
  - _DISABLE_SSR_TRANSPARENT
  m_InvalidKeywords: []
  m_LightmapFlags: 2
  m_EnableInstancingVariants: 0
  m_DoubleSidedGI: 0
  m_CustomRenderQueue: 2450
  stringTagMap:
    MotionVector: User
    RenderType: TransparentCutout
  disabledShaderPasses:
  - TransparentDepthPrepass
  - TransparentDepthPostpass
  - TransparentBackface
  - RayTracingPrepass
  - MOTIONVECTORS
  m_LockedProperties: 
  m_SavedProperties:
    serializedVersion: 3
    m_TexEnvs:
    - Texture2D_2046661A:
        m_Texture: {fileID: 2800000, guid: 263398b767195469fbf321b5076d64ea, type: 3}
        m_Scale: {x: 1, y: 1}
        m_Offset: {x: 0, y: 0}
    - Texture2D_38793424:
        m_Texture: {fileID: 2800000, guid: 84956715d52a7f040a6a341dfd449801, type: 3}
        m_Scale: {x: 1, y: 1}
        m_Offset: {x: 0, y: 0}
    - Texture2D_3D8FD2A5:
        m_Texture: {fileID: 2800000, guid: 167d49ba0032b4ebfa6a20636dd77232, type: 3}
        m_Scale: {x: 1, y: 1}
        m_Offset: {x: 0, y: 0}
    - Texture2D_5E505606:
        m_Texture: {fileID: 2800000, guid: 7efbcde42c5d84118b6d591943460041, type: 3}
        m_Scale: {x: 1, y: 1}
        m_Offset: {x: 0, y: 0}
    - Texture2D_86E580F7:
        m_Texture: {fileID: 2800000, guid: 8f81199c7a78242fa94d2b11796326a2, type: 3}
        m_Scale: {x: 1, y: 1}
        m_Offset: {x: 0, y: 0}
    - Texture2D_933CD9B0:
        m_Texture: {fileID: 2800000, guid: 59abea2798d958545844e5110e4cbfe6, type: 3}
        m_Scale: {x: 1, y: 1}
        m_Offset: {x: 0, y: 0}
    - Texture2D_D4C629A1:
        m_Texture: {fileID: 2800000, guid: 592277751c386d34fa5609a321b5618e, type: 3}
        m_Scale: {x: 1, y: 1}
        m_Offset: {x: 0, y: 0}
    - _BumpMap:
        m_Texture: {fileID: 2800000, guid: 84956715d52a7f040a6a341dfd449801, type: 3}
        m_Scale: {x: 1, y: 1}
        m_Offset: {x: 0, y: 0}
    - _DetailAlbedoMap:
        m_Texture: {fileID: 2800000, guid: 167d49ba0032b4ebfa6a20636dd77232, type: 3}
        m_Scale: {x: 40, y: 40}
        m_Offset: {x: 0, y: 0}
    - _DetailMask:
        m_Texture: {fileID: 2800000, guid: 59abea2798d958545844e5110e4cbfe6, type: 3}
        m_Scale: {x: 1, y: 1}
        m_Offset: {x: 0, y: 0}
    - _DetailNormalMap:
        m_Texture: {fileID: 2800000, guid: 263398b767195469fbf321b5076d64ea, type: 3}
        m_Scale: {x: 1, y: 1}
        m_Offset: {x: 0, y: 0}
    - _DetailOcclusion:
        m_Texture: {fileID: 0}
        m_Scale: {x: 1, y: 1}
        m_Offset: {x: 0, y: 0}
    - _DetailParallaxMap:
        m_Texture: {fileID: 0}
        m_Scale: {x: 1, y: 1}
        m_Offset: {x: 0, y: 0}
    - _DetailSpecGlossMap:
        m_Texture: {fileID: 2800000, guid: 7efbcde42c5d84118b6d591943460041, type: 3}
        m_Scale: {x: 1, y: 1}
        m_Offset: {x: 0, y: 0}
    - _EmissionMap:
        m_Texture: {fileID: 0}
        m_Scale: {x: 1, y: 1}
        m_Offset: {x: 0, y: 0}
    - _GlobalAlbedoDetailMask:
        m_Texture: {fileID: 2800000, guid: 7b895c7902f0f4f43908aba30ba6c079, type: 3}
        m_Scale: {x: 1, y: 1}
        m_Offset: {x: 0, y: 0}
    - _GlobalBumpMap:
        m_Texture: {fileID: 2800000, guid: e0a154ce4939e8e4c82784703d1a9221, type: 3}
        m_Scale: {x: 1, y: 1}
        m_Offset: {x: 0, y: 0}
    - _MainTex:
        m_Texture: {fileID: 2800000, guid: 7379bd0702051604e95990811452abc6, type: 3}
        m_Scale: {x: 40, y: 40}
        m_Offset: {x: 0, y: 0}
    - _MainTex2:
        m_Texture: {fileID: 2800000, guid: 167d49ba0032b4ebfa6a20636dd77232, type: 3}
        m_Scale: {x: 40, y: 40}
        m_Offset: {x: 0, y: 0}
    - _Mask:
        m_Texture: {fileID: 2800000, guid: 59abea2798d958545844e5110e4cbfe6, type: 3}
        m_Scale: {x: 1, y: 1}
        m_Offset: {x: 0, y: 0}
    - _MetallicGlossMap:
        m_Texture: {fileID: 0}
        m_Scale: {x: 1, y: 1}
        m_Offset: {x: 0, y: 0}
    - _NormalMap:
        m_Texture: {fileID: 2800000, guid: 84956715d52a7f040a6a341dfd449801, type: 3}
        m_Scale: {x: 1, y: 1}
        m_Offset: {x: 0, y: 0}
    - _NormalMap2:
        m_Texture: {fileID: 2800000, guid: 263398b767195469fbf321b5076d64ea, type: 3}
        m_Scale: {x: 1, y: 1}
        m_Offset: {x: 0, y: 0}
    - _Occlusion:
        m_Texture: {fileID: 0}
        m_Scale: {x: 1, y: 1}
        m_Offset: {x: 0, y: 0}
    - _OcclusionMap:
        m_Texture: {fileID: 0}
        m_Scale: {x: 1, y: 1}
        m_Offset: {x: 0, y: 0}
    - _ParallaxMap:
        m_Texture: {fileID: 0}
        m_Scale: {x: 1, y: 1}
        m_Offset: {x: 0, y: 0}
    - _SpecGlossMap:
        m_Texture: {fileID: 2800000, guid: 592277751c386d34fa5609a321b5618e, type: 3}
        m_Scale: {x: 1, y: 1}
        m_Offset: {x: 0, y: 0}
    - _SpecGlossMap2:
        m_Texture: {fileID: 2800000, guid: 7efbcde42c5d84118b6d591943460041, type: 3}
        m_Scale: {x: 1, y: 1}
        m_Offset: {x: 0, y: 0}
    - _VertexColorScale:
        m_Texture: {fileID: 0}
        m_Scale: {x: 1, y: 1}
        m_Offset: {x: 0, y: 0}
    - unity_Lightmaps:
        m_Texture: {fileID: 0}
        m_Scale: {x: 1, y: 1}
        m_Offset: {x: 0, y: 0}
    - unity_LightmapsInd:
        m_Texture: {fileID: 0}
        m_Scale: {x: 1, y: 1}
        m_Offset: {x: 0, y: 0}
    - unity_ShadowMasks:
        m_Texture: {fileID: 0}
        m_Scale: {x: 1, y: 1}
        m_Offset: {x: 0, y: 0}
    m_Ints: []
    m_Floats:
    - _AddPrecomputedVelocity: 0
    - _AlphaCutoffEnable: 1
    - _AlphaDstBlend: 0
    - _AlphaSrcBlend: 1
    - _AlphaTestRef: 0.5
    - _BlendMode: 0
    - _BumpScale: 1
    - _ConservativeDepthOffsetEnable: 0
    - _CullMode: 2
    - _CullModeForward: 2
    - _Cutoff: 0.5
    - _DepthOffsetEnable: 0
    - _DetailAlbedoMultiplier: 4.594794
    - _DetailMode: 0
    - _DetailNormalMapScale: 1
    - _DetailParallax: 0.02
    - _DoubleSidedEnable: 0
    - _DoubleSidedGIMode: 0
    - _DoubleSidedNormalMode: 2
    - _DstBlend: 0
    - _EmissionScaleUI: 1
    - _EnableBlendModePreserveSpecularLighting: 0
    - _EnableFogOnTransparent: 1
    - _ExcludeFromTUAndAA: 0
    - _GlobalBumpScale: 0
    - _Glossiness: 0
    - _Lightmapping: 1
    - _Metallic: 0
    - _Mode: 0
    - _NormalScale: 1
    - _OcclusionStrength: 1
    - _OpaqueCullMode: 2
    - _Parallax: 0.02
    - _QueueControl: -1
    - _QueueOffset: 0
    - _RayTracing: 0
    - _ReceivesSSR: 1
    - _ReceivesSSRTransparent: 0
    - _RefractionModel: 0
    - _RenderQueueType: 1
    - _RequireSplitLighting: 0
    - _SrcBlend: 1
    - _StencilRef: 0
    - _StencilRefDepth: 8
    - _StencilRefDistortionVec: 4
    - _StencilRefGBuffer: 10
    - _StencilRefMV: 40
    - _StencilWriteMask: 6
    - _StencilWriteMaskDepth: 9
    - _StencilWriteMaskDistortionVec: 4
    - _StencilWriteMaskGBuffer: 15
    - _StencilWriteMaskMV: 41
    - _SupportDecals: 0
    - _SurfaceType: 0
    - _TransparentBackfaceEnable: 0
    - _TransparentCullMode: 2
    - _TransparentDepthPostpassEnable: 0
    - _TransparentDepthPrepassEnable: 0
    - _TransparentSortPriority: 0
    - _TransparentWritingMotionVec: 0
    - _TransparentZWrite: 0
    - _UVPrim: 0
    - _UVSec: 0
    - _UseShadowThreshold: 0
    - _VertexAlphaScale: 1
    - _ZTestDepthEqualForOpaque: 3
    - _ZTestGBuffer: 3
    - _ZTestTransparent: 4
    - _ZWrite: 1
    m_Colors:
    - Vector2_25355DDA: {r: 80, g: 80, b: 0, a: 0}
    - Vector2_7270F9CB: {r: 80, g: 80, b: 0, a: 0}
    - _Color: {r: 0.6102941, g: 0.6102941, b: 0.6102941, a: 1}
    - _DoubleSidedConstants: {r: 1, g: 1, b: -1, a: 0}
    - _EmissionColor: {r: 1, g: 1, b: 1, a: 1}
    - _EmissionColor2: {r: 0, g: 0, b: 0, a: 1}
    - _EmissionColorUI: {r: 0, g: 0, b: 0, a: 1}
    - _EmissionColorWithMapUI: {r: 1, g: 1, b: 1, a: 1}
    - _SpecColor: {r: 0.2, g: 0.2, b: 0.2, a: 1}
    - _SpecularColor: {r: 0.2, g: 0.2, b: 0.2, a: 1}
  m_BuildTextureStacks: []
--- !u!114 &2337144057495625654
MonoBehaviour:
  m_ObjectHideFlags: 11
  m_CorrespondingSourceObject: {fileID: 0}
  m_PrefabInstance: {fileID: 0}
  m_PrefabAsset: {fileID: 0}
  m_GameObject: {fileID: 0}
  m_Enabled: 1
  m_EditorHideFlags: 0
  m_Script: {fileID: 11500000, guid: da692e001514ec24dbc4cca1949ff7e8, type: 3}
  m_Name: 
  m_EditorClassIdentifier: 
  version: 13
  hdPluginSubTargetMaterialVersions:
    m_Keys: []
    m_Values: 
